 ALTAIR 680B PROM MONITOR
 ACIA VERSION 1.0
S113FF008D2224FCC67FD1F3F4F001247439018DD1
S113FF10EFC0302B3CC1092F0AC1112B34C1162E5E
S113FF2030C00739F6F00057398DD5C05326FA8D05
S113FF30CFC139271CC13126F04F8D17C002D7F924
S113FF408D208D0F7A00F92705E7000820F44C274F
S113FF50D820588DBA585858581BD7F88DB11BDB88
S113FF60F8398DEFD7FA8DEBD7FBDEFA39165454F6
S113FF7054548D0116C40FCB30C1392304CB07016F
S113FF80018CC620378D9D5724FB33F7F00139DEF1
S113FF90FA08DFFA96FA8DD596FB8DD18C8DC38D38
S113FFA0E1A6008DC88DDB8DAAE7009EF6C60D8DF7
S113FFB0D0C60A8DCCC62E8DC8BDFF00178DC38157
S113FFC04C278C814A26048D996E00814D27CE8161
S113FFD04E27BC815026D43B8E00F3C6033737F737
S113FFE0F000F6F0022B19C404CAD1F7F0009FF612
S113FFF09FFAD6F22B0A20B30100FFEE0104FFD8CA
S9
